1	2012-06-01 00:15:00-04	POLYGON((466.763 -285.649,479.467 -195.466,556.422 -195.991,541.682 -286.137,466.763 -285.649))
1	2012-06-01 00:30:00-04	POLYGON((469.537 -286.164,482.572 -193.994,561.168 -194.534,546.013 -286.666,469.537 -286.164))
1	2012-06-01 00:45:00-04	POLYGON((477.685 -279.896,489.051 -200.909,556.212 -201.37,543.317 -280.329,477.685 -279.896))
1	2012-06-01 01:00:00-04	POLYGON((453.957 -299.163,470.525 -179.309,573.104 -180.015,553.178 -299.811,453.957 -299.163))
1	2012-06-01 01:15:00-04	POLYGON((476.512 -285.5,489.449 -195.467,566.014 -195.998,551.056 -285.994,476.512 -285.5))
1	2012-06-01 01:30:00-04	POLYGON((477.626 -286.176,490.766 -194.994,568.269 -195.533,553.057 -286.678,477.626 -286.176))
1	2012-06-01 01:45:00-04	POLYGON((478.254 -287.061,491.639 -194.373,570.394 -194.922,554.868 -287.571,478.254 -287.061))
1	2012-06-01 02:00:00-04	POLYGON((478.275 -288.35,491.995 -193.465,572.598 -194.028,556.634 -288.872,478.275 -288.35))
1	2012-06-01 02:15:00-04	POLYGON((479.152 -288.756,492.97 -193.445,573.898 -194.011,557.815 -289.281,479.152 -288.756))
1	2012-06-01 02:30:00-04	POLYGON((481.668 -288.492,495.395 -194.402,575.199 -194.961,559.263 -289.011,481.668 -288.492))
1	2012-06-01 02:45:00-04	POLYGON((483.41 -288.309,497.075 -195.065,576.101 -195.62,560.266 -288.824,483.41 -288.309))
1	2012-06-01 03:00:00-04	POLYGON((485.153 -288.126,498.755 -195.728,577.002 -196.278,561.27 -288.637,485.153 -288.126))
1	2012-06-01 03:15:00-04	POLYGON((486.824 -287.955,500.391 -196.152,578.081 -196.699,562.412 -288.463,486.824 -287.955))
1	2012-06-01 03:30:00-04	POLYGON((488.852 -287.754,502.417 -196.311,579.751 -196.856,564.101 -288.261,488.852 -287.754))
1	2012-06-01 03:45:00-04	POLYGON((490.257 -287.615,503.821 -196.421,580.907 -196.966,565.272 -288.122,490.257 -287.615))
1	2012-06-01 04:00:00-04	POLYGON((491.662 -287.476,505.225 -196.531,582.064 -197.075,566.442 -287.982,491.662 -287.476))
1	2012-06-01 04:15:00-04	POLYGON((493.171 -287.369,506.755 -196.534,583.462 -197.078,567.827 -287.875,493.171 -287.369))
1	2012-06-01 04:30:00-04	POLYGON((495.014 -287.294,508.65 -196.388,585.374 -196.934,569.685 -287.801,495.014 -287.294))
1	2012-06-01 04:45:00-04	POLYGON((496.613 -294.935,510.306 -204.203,586.977 -204.177,571.232 -294.885,496.613 -294.935))
10	2012-06-03 16:15:00-04	POLYGON((650.674 -211.402,661.992 -124.461,737.212 -124.868,724.591 -211.766,650.674 -211.402))
10	2012-06-03 16:30:00-04	POLYGON((645.06 -220.593,657.907 -126.961,738.27 -127.388,723.639 -220.968,645.06 -220.593))
10	2012-06-03 16:45:00-04	POLYGON((640.003 -228.874,654.227 -129.214,739.223 -129.658,722.782 -229.258,640.003 -228.874))
10	2012-06-03 17:00:00-04	POLYGON((634.946 -237.155,650.548 -131.466,740.176 -131.928,721.925 -237.548,634.946 -237.155))
10	2012-06-03 17:15:00-04	POLYGON((629.888 -245.435,646.868 -133.719,741.129 -134.198,721.067 -245.838,629.888 -245.435))
10	2012-06-03 17:30:00-04	POLYGON((624.831 -253.716,643.188 -135.971,742.082 -136.468,720.21 -254.128,624.831 -253.716))
10	2012-06-03 17:45:00-04	POLYGON((619.773 -261.997,639.508 -138.223,743.035 -138.738,719.353 -262.418,619.773 -261.997))
10	2012-06-03 18:00:00-04	POLYGON((614.716 -270.277,635.828 -140.476,743.988 -141.008,718.496 -270.708,614.716 -270.277))
10	2012-06-03 18:15:00-04	POLYGON((609.659 -278.558,632.148 -142.728,744.941 -143.277,717.638 -278.999,609.659 -278.558))
10	2012-06-03 18:30:00-04	POLYGON((604.601 -286.838,628.468 -144.981,745.894 -145.547,716.781 -287.289,604.601 -286.838))
10	2012-06-03 18:45:00-04	POLYGON((599.544 -295.119,624.788 -147.233,746.847 -147.817,715.924 -295.579,599.544 -295.119))
10	2012-06-03 19:00:00-04	POLYGON((594.486 -303.4,621.109 -149.486,747.8 -150.087,715.066 -303.869,594.486 -303.4))
10	2012-06-03 19:15:00-04	POLYGON((589.429 -311.68,617.429 -151.738,748.753 -152.357,714.209 -312.159,589.429 -311.68))
10	2012-06-03 19:30:00-04	POLYGON((584.372 -319.961,613.749 -153.99,749.706 -154.627,713.352 -320.449,584.372 -319.961))
10	2012-06-03 19:45:00-04	POLYGON((579.314 -328.241,610.069 -156.243,750.659 -156.897,712.494 -328.739,579.314 -328.241))
10	2012-06-03 20:00:00-04	POLYGON((574.257 -336.522,606.389 -158.495,751.612 -159.167,711.637 -337.029,574.257 -336.522))
10	2012-06-03 20:15:00-04	POLYGON((569.965 -348.242,603.343 -165.096,752.652 -164.752,711.046 -347.781,569.965 -348.242))
11	2012-06-03 16:45:00-04	POLYGON((-678.151 -406.277,-708.777 -312.852,-584.219 -312.343,-558.967 -405.847,-678.151 -406.277))
11	2012-06-03 17:00:00-04	POLYGON((-670.251 -397.446,-701.674 -293.254,-565.528 -292.72,-540.287 -397.002,-670.251 -397.446))
11	2012-06-03 17:15:00-04	POLYGON((-663.134 -389.49,-695.274 -275.599,-548.689 -275.042,-523.458 -389.034,-663.134 -389.49))
11	2012-06-03 17:30:00-04	POLYGON((-656.017 -381.534,-688.875 -257.943,-531.851 -257.364,-506.629 -381.065,-656.017 -381.534))
11	2012-06-03 17:45:00-04	POLYGON((-648.899 -373.578,-682.475 -240.287,-515.012 -239.686,-489.8 -373.097,-648.899 -373.578))
11	2012-06-03 18:00:00-04	POLYGON((-641.782 -365.622,-676.076 -222.632,-498.174 -222.008,-472.971 -365.128,-641.782 -365.622))
11	2012-06-03 18:15:00-04	POLYGON((-634.771 -357.91,-669.481 -207.036,-483.262 -206.396,-458.206 -357.409,-634.771 -357.91))
11	2012-06-03 18:30:00-04	POLYGON((-628.034 -351.635,-660.535 -208.206,-484.011 -207.607,-460.325 -351.163,-628.034 -351.635))
11	2012-06-03 18:45:00-04	POLYGON((-621.965 -345.982,-652.475 -209.261,-484.686 -208.698,-462.235 -345.535,-621.965 -345.982))
11	2012-06-03 19:00:00-04	POLYGON((-615.896 -340.33,-644.416 -210.315,-485.36 -209.789,-464.144 -339.908,-615.896 -340.33))
11	2012-06-03 19:15:00-04	POLYGON((-609.827 -334.677,-636.356 -211.37,-486.035 -210.88,-466.053 -334.281,-609.827 -334.677))
11	2012-06-03 19:30:00-04	POLYGON((-603.758 -329.024,-628.296 -212.424,-486.709 -211.971,-467.963 -328.654,-603.758 -329.024))
11	2012-06-03 19:45:00-04	POLYGON((-597.689 -323.371,-620.237 -213.479,-487.384 -213.062,-469.872 -323.026,-597.689 -323.371))
11	2012-06-03 20:00:00-04	POLYGON((-591.62 -317.718,-612.177 -214.533,-488.059 -214.154,-471.781 -317.399,-591.62 -317.718))
11	2012-06-03 20:15:00-04	POLYGON((-585.98 -312.953,-604.797 -215.632,-488.315 -215.285,-473.117 -312.657,-585.98 -312.953))
11	2012-06-03 20:30:00-04	POLYGON((-583.708 -315.49,-602.821 -217.159,-485.034 -216.814,-469.65 -315.196,-583.708 -315.49))
11	2012-06-03 20:45:00-04	POLYGON((-581.474 -317.375,-600.747 -218.575,-482.334 -218.232,-466.854 -317.083,-581.474 -317.375))
11	2012-06-03 21:00:00-04	POLYGON((-577.687 -316.659,-596.382 -220.425,-481.127 -220.096,-466.047 -316.378,-577.687 -316.659))
11	2012-06-03 21:15:00-04	POLYGON((-574.356 -316.029,-592.542 -222.053,-480.065 -221.736,-465.338 -315.758,-574.356 -316.029))
11	2012-06-03 21:30:00-04	POLYGON((-571.025 -315.4,-588.701 -223.681,-479.003 -223.375,-464.628 -315.138,-571.025 -315.4))
11	2012-06-03 21:45:00-04	POLYGON((-567.693 -314.77,-584.861 -225.308,-477.941 -225.015,-463.918 -314.518,-567.693 -314.77))
11	2012-06-03 22:00:00-04	POLYGON((-564.362 -314.14,-581.021 -226.936,-476.879 -226.655,-463.209 -313.898,-564.362 -314.14))
11	2012-06-03 22:15:00-04	POLYGON((-561.935 -314.278,-578.391 -228.119,-475.506 -227.845,-462 -314.042,-561.935 -314.278))
11	2012-06-03 22:30:00-04	POLYGON((-567.289 -321.226,-586.234 -225.478,-471.238 -225.171,-456.26 -320.969,-567.289 -321.226))
11	2012-06-03 22:45:00-04	POLYGON((-572.112 -327.485,-593.301 -223.098,-467.393 -222.761,-451.09 -327.209,-572.112 -327.485))
11	2012-06-03 23:00:00-04	POLYGON((-576.936 -333.744,-600.367 -220.719,-463.548 -220.352,-445.919 -333.449,-576.936 -333.744))
11	2012-06-03 23:15:00-04	POLYGON((-581.759 -340.003,-607.433 -218.34,-459.703 -217.942,-440.748 -339.689,-581.759 -340.003))
11	2012-06-03 23:30:00-04	POLYGON((-586.582 -346.262,-614.499 -215.96,-455.858 -215.533,-435.578 -345.929,-586.582 -346.262))
11	2012-06-03 23:45:00-04	POLYGON((-591.406 -352.521,-621.565 -213.581,-452.012 -213.123,-430.407 -352.17,-591.406 -352.521))
11	2012-06-04 00:00:00-04	POLYGON((-596.229 -358.781,-628.631 -211.201,-448.167 -210.714,-425.236 -358.41,-596.229 -358.781))
11	2012-06-04 00:15:00-04	POLYGON((-597.45 -361.691,-630.853 -210.122,-445.386 -209.622,-421.871 -361.313,-597.45 -361.691))
11	2012-06-04 00:30:00-04	POLYGON((-568.152 -336.32,-592.072 -220.021,-451.496 -219.661,-433.662 -336.034,-568.152 -336.32))
11	2012-06-04 00:45:00-04	POLYGON((-544.48 -320.005,-560.791 -232.105,-456.185 -232.253,-442.913 -320.178,-544.48 -320.005))
12	2012-06-03 23:45:00-04	POLYGON((-463.024 132.443,-451.812 243.948,-351.336 243.959,-360.056 132.426,-463.024 132.443))
13	2012-06-03 23:45:00-04	POLYGON((-175.275 -399.315,-182.797 -307.282,-82.9689 -307.319,-79.5566 -399.357,-175.275 -399.315))
14	2012-06-04 04:45:00-04	POLYGON((292.945 -298.602,301.638 -200.601,390.96 -200.53,379.695 -298.517,292.945 -298.602))
15	2012-06-04 06:45:00-04	POLYGON((-679.563 217.912,-655.586 326.086,-571.017 326.167,-591.908 217.95,-679.563 217.912))
16	2012-06-04 07:15:00-04	POLYGON((-107.457 -394.552,-111.91 -304.391,-17.1 -304.406,-16.4223 -394.568,-107.457 -394.552))
17	2012-06-04 08:15:00-04	POLYGON((-476.827 -311.996,-489.834 -231.534,-396.218 -231.385,-385.695 -311.87,-476.827 -311.996))
17	2012-06-04 08:30:00-04	POLYGON((-475.191 -312.403,-488.283 -231.097,-393.739 -230.948,-383.186 -312.278,-475.191 -312.403))
17	2012-06-04 08:45:00-04	POLYGON((-473.718 -312.77,-486.886 -230.703,-391.505 -230.555,-380.925 -312.646,-473.718 -312.77))
17	2012-06-04 09:00:00-04	POLYGON((-472.245 -313.137,-485.488 -230.309,-389.271 -230.162,-378.665 -313.014,-472.245 -313.137))
17	2012-06-04 09:15:00-04	POLYGON((-470.771 -313.504,-484.091 -229.915,-387.038 -229.769,-376.404 -313.382,-470.771 -313.504))
17	2012-06-04 09:30:00-04	POLYGON((-469.298 -313.871,-482.694 -229.521,-384.804 -229.375,-374.144 -313.75,-469.298 -313.871))
17	2012-06-04 09:45:00-04	POLYGON((-467.824 -314.238,-481.296 -229.127,-382.571 -228.982,-371.883 -314.118,-467.824 -314.238))
17	2012-06-04 10:00:00-04	POLYGON((-466.351 -314.605,-479.899 -228.733,-380.337 -228.589,-369.623 -314.486,-466.351 -314.605))
17	2012-06-04 10:15:00-04	POLYGON((-464.878 -314.972,-478.502 -228.339,-378.103 -228.195,-367.362 -314.854,-464.878 -314.972))
17	2012-06-04 10:30:00-04	POLYGON((-463.404 -315.339,-477.105 -227.945,-375.87 -227.802,-365.102 -315.221,-463.404 -315.339))
17	2012-06-04 10:45:00-04	POLYGON((-461.931 -315.706,-475.707 -227.551,-373.636 -227.409,-362.841 -315.589,-461.931 -315.706))
17	2012-06-04 11:00:00-04	POLYGON((-460.457 -316.072,-474.31 -227.157,-371.402 -227.016,-360.581 -315.957,-460.457 -316.072))
17	2012-06-04 11:15:00-04	POLYGON((-458.984 -316.439,-472.913 -226.763,-369.169 -226.622,-358.32 -316.325,-458.984 -316.439))
17	2012-06-04 11:30:00-04	POLYGON((-457.511 -316.806,-471.515 -226.369,-366.935 -226.229,-356.059 -316.693,-457.511 -316.806))
17	2012-06-04 11:45:00-04	POLYGON((-456.037 -317.173,-470.118 -225.975,-364.701 -225.836,-353.799 -317.061,-456.037 -317.173))
17	2012-06-04 12:00:00-04	POLYGON((-454.564 -317.54,-468.721 -225.581,-362.468 -225.442,-351.538 -317.429,-454.564 -317.54))
17	2012-06-04 12:15:00-04	POLYGON((-453.09 -317.907,-467.323 -225.187,-360.234 -225.049,-349.278 -317.797,-453.09 -317.907))
17	2012-06-04 12:30:00-04	POLYGON((-451.617 -318.274,-465.926 -224.793,-358.001 -224.656,-347.017 -318.164,-451.617 -318.274))
17	2012-06-04 12:45:00-04	POLYGON((-450.144 -318.641,-464.529 -224.399,-355.767 -224.263,-344.757 -318.532,-450.144 -318.641))
17	2012-06-04 13:00:00-04	POLYGON((-448.67 -319.008,-463.131 -224.005,-353.533 -223.869,-342.496 -318.9,-448.67 -319.008))
17	2012-06-04 13:15:00-04	POLYGON((-447.158 -322.08,-461.678 -226.485,-351.316 -226.544,-340.265 -322.16,-447.158 -322.08))
18	2012-06-04 14:15:00-04	POLYGON((-722.984 129.289,-712.891 202.833,-649.144 202.905,-658.338 129.337,-722.984 129.289))
19	2012-06-04 18:45:00-04	POLYGON((-10.7726 -396.013,-11.239 -301.197,84.1503 -301.193,80.6255 -396.009,-10.7726 -396.013))
2	2012-06-01 01:15:00-04	POLYGON((56.9097 -288.763,58.5342 -195.867,149.702 -195.971,145.486 -288.859,56.9097 -288.763))
2	2012-06-01 01:30:00-04	POLYGON((56.7255 -305.481,58.7362 -194.431,167.641 -194.566,161.842 -305.604,56.7255 -305.481))
2	2012-06-01 01:45:00-04	POLYGON((57.6709 -321.232,59.8851 -203.522,175.62 -203.515,169.154 -321.218,57.6709 -321.232))
20	2012-06-04 19:45:00-04	POLYGON((-485.275 -382.182,-504.057 -294.621,-397.519 -294.681,-382.705 -382.265,-485.275 -382.182))
21	2012-06-04 20:15:00-04	POLYGON((-373.274 167.318,-366.284 246.369,-294.108 246.485,-299.722 167.426,-373.274 167.318))
21	2012-06-04 20:30:00-04	POLYGON((-371.065 166.009,-363.991 246.7,-290.258 246.817,-295.899 166.117,-371.065 166.009))
21	2012-06-04 20:45:00-04	POLYGON((-369.099 164.927,-361.959 246.985,-286.926 247.101,-292.587 165.034,-369.099 164.927))
21	2012-06-04 21:00:00-04	POLYGON((-367.077 164.404,-359.919 247.205,-284.161 247.321,-289.812 164.511,-367.077 164.404))
21	2012-06-04 21:15:00-04	POLYGON((-365.298 163.944,-358.125 247.399,-281.729 247.514,-287.371 164.05,-365.298 163.944))
21	2012-06-04 21:30:00-04	POLYGON((-363.519 163.484,-356.331 247.593,-279.297 247.708,-284.93 163.59,-363.519 163.484))
21	2012-06-04 21:45:00-04	POLYGON((-361.74 163.025,-354.536 247.787,-276.865 247.901,-282.489 163.13,-361.74 163.025))
21	2012-06-04 22:00:00-04	POLYGON((-359.961 162.565,-352.742 247.98,-274.432 248.094,-280.048 162.669,-359.961 162.565))
21	2012-06-04 22:15:00-04	POLYGON((-358.182 162.105,-350.947 248.174,-272 248.288,-277.607 162.209,-358.182 162.105))
21	2012-06-04 22:30:00-04	POLYGON((-356.403 161.645,-349.153 248.368,-269.568 248.481,-275.166 161.749,-356.403 161.645))
21	2012-06-04 22:45:00-04	POLYGON((-354.508 161.368,-347.257 248.559,-267.206 248.672,-272.787 161.471,-354.508 161.368))
21	2012-06-04 23:00:00-04	POLYGON((-351.533 162.633,-344.404 248.736,-265.321 248.846,-270.815 162.734,-351.533 162.633))
21	2012-06-04 23:15:00-04	POLYGON((-348.91 162.235,-341.884 247.497,-263.569 247.56,-268.985 162.287,-348.91 162.235))
22	2012-06-04 23:45:00-04	POLYGON((-687.454 189.461,-655.888 336.739,-539.745 337.029,-565.734 189.683,-687.454 189.461))
23	2012-06-04 23:45:00-04	POLYGON((-451.84 205.15,-442.556 277.572,-379.313 277.65,-387.273 205.218,-451.84 205.15))
24	2012-06-05 01:45:00-04	POLYGON((-346.638 -329.368,-359.013 -227.181,-244.398 -227.127,-235.97 -329.334,-346.638 -329.368))
24	2012-06-05 02:00:00-04	POLYGON((-357.814 -336.772,-371.032 -235.047,-256.037 -234.994,-246.892 -336.74,-357.814 -336.772))
24	2012-06-05 02:15:00-04	POLYGON((-367.883 -343.443,-381.861 -242.134,-266.522 -242.081,-256.732 -343.411,-367.883 -343.443))
24	2012-06-05 02:30:00-04	POLYGON((-377.952 -350.113,-392.689 -249.221,-277.008 -249.168,-266.571 -350.083,-377.952 -350.113))
24	2012-06-05 02:45:00-04	POLYGON((-388.021 -356.784,-403.518 -256.308,-287.493 -256.255,-276.411 -356.755,-388.021 -356.784))
24	2012-06-05 03:00:00-04	POLYGON((-398.09 -363.454,-414.346 -263.394,-297.979 -263.342,-286.25 -363.427,-398.09 -363.454))
24	2012-06-05 03:15:00-04	POLYGON((-408.159 -370.125,-425.174 -270.481,-308.465 -270.429,-296.09 -370.099,-408.159 -370.125))
24	2012-06-05 03:30:00-04	POLYGON((-418.227 -376.795,-436.003 -277.568,-318.95 -277.516,-305.93 -376.77,-418.227 -376.795))
24	2012-06-05 03:45:00-04	POLYGON((-426.487 -382.313,-444.751 -284.308,-328.434 -284.257,-314.948 -382.29,-426.487 -382.313))
24	2012-06-05 04:00:00-04	POLYGON((-419.799 -378.32,-436.271 -288.44,-329.878 -288.396,-317.443 -378.299,-419.799 -378.32))
24	2012-06-05 04:15:00-04	POLYGON((-414.26 -375.435,-429.325 -291.957,-330.745 -291.918,-319.137 -375.416,-414.26 -375.435))
24	2012-06-05 04:30:00-04	POLYGON((-412.53 -378.548,-427.892 -293.95,-327.897 -293.913,-316.126 -378.53,-412.53 -378.548))
24	2012-06-05 04:45:00-04	POLYGON((-410.972 -381.352,-426.602 -295.746,-325.331 -295.709,-313.414 -381.336,-410.972 -381.352))
24	2012-06-05 05:00:00-04	POLYGON((-409.413 -384.156,-425.311 -297.541,-322.766 -297.506,-310.702 -384.141,-409.413 -384.156))
24	2012-06-05 05:15:00-04	POLYGON((-407.822 -387.24,-423.947 -299.748,-320.251 -299.75,-308.069 -387.26,-407.822 -387.24))
25	2012-06-05 02:45:00-04	POLYGON((-225.942 139.702,-221.279 235.871,-129.737 235.911,-132.471 139.734,-225.942 139.702))
26	2012-06-05 06:45:00-04	POLYGON((-306.386 -323.989,-317.411 -217.476,-199.84 -217.442,-192.904 -323.973,-306.386 -323.989))
26	2012-06-05 07:00:00-04	POLYGON((-308.935 -332.752,-321.257 -217.359,-193.508 -217.323,-186.112 -332.737,-308.935 -332.752))
26	2012-06-05 07:15:00-04	POLYGON((-310.417 -339.429,-323.7 -217.392,-188.345 -217.355,-180.617 -339.416,-310.417 -339.429))
26	2012-06-05 07:30:00-04	POLYGON((-304.903 -336.012,-317.41 -218.642,-187.501 -218.608,-180.125 -336,-304.903 -336.012))
26	2012-06-05 07:45:00-04	POLYGON((-299.935 -332.933,-311.744 -219.768,-186.74 -219.737,-179.683 -332.922,-299.935 -332.933))
26	2012-06-05 08:00:00-04	POLYGON((-294.968 -329.855,-306.077 -220.894,-185.98 -220.865,-179.24 -329.844,-294.968 -329.855))
26	2012-06-05 08:15:00-04	POLYGON((-290.32 -327.544,-300.797 -222.337,-185.051 -222.326,-178.606 -327.55,-290.32 -327.544))
27	2012-06-05 10:15:00-04	POLYGON((-439.638 157.301,-430.643 245.705,-351.124 245.815,-358.46 157.397,-439.638 157.301))
27	2012-06-05 10:30:00-04	POLYGON((-437.365 157.508,-428.426 245.746,-349.018 245.855,-356.302 157.602,-437.365 157.508))
27	2012-06-05 10:45:00-04	POLYGON((-435.317 157.694,-426.429 245.784,-347.121 245.891,-354.358 157.787,-435.317 157.694))
27	2012-06-05 11:00:00-04	POLYGON((-433.269 157.88,-424.431 245.821,-345.224 245.926,-352.414 157.972,-433.269 157.88))
27	2012-06-05 11:15:00-04	POLYGON((-431.222 158.067,-422.434 245.859,-343.326 245.962,-350.47 158.157,-431.222 158.067))
27	2012-06-05 11:30:00-04	POLYGON((-429.174 158.253,-420.437 245.896,-341.429 245.998,-348.526 158.342,-429.174 158.253))
27	2012-06-05 11:45:00-04	POLYGON((-427.126 158.439,-418.44 245.933,-339.532 246.034,-346.582 158.526,-427.126 158.439))
27	2012-06-05 12:00:00-04	POLYGON((-425.078 158.625,-416.442 245.971,-337.635 246.07,-344.638 158.711,-425.078 158.625))
27	2012-06-05 12:15:00-04	POLYGON((-423.03 158.812,-414.445 246.008,-335.737 246.106,-342.694 158.896,-423.03 158.812))
27	2012-06-05 12:30:00-04	POLYGON((-420.983 158.998,-412.448 246.045,-333.84 246.142,-340.75 159.081,-420.983 158.998))
27	2012-06-05 12:45:00-04	POLYGON((-418.928 159.141,-410.441 246.084,-331.892 246.179,-338.757 159.223,-418.928 159.141))
27	2012-06-05 13:00:00-04	POLYGON((-416.655 158.921,-408.191 246.14,-329.344 246.233,-336.176 159.001,-416.655 158.921))
27	2012-06-05 13:15:00-04	POLYGON((-414.608 158.723,-406.164 246.19,-327.049 246.282,-333.85 158.802,-414.608 158.723))
27	2012-06-05 13:30:00-04	POLYGON((-412.56 158.524,-404.137 246.24,-324.754 246.331,-331.525 158.602,-412.56 158.524))
27	2012-06-05 13:45:00-04	POLYGON((-410.514 158.705,-402.113 246.64,-322.48 246.744,-329.217 158.798,-410.514 158.705))
28	2012-06-05 10:15:00-04	POLYGON((556.465 125.522,548.395 203.273,633.996 203.103,643.322 125.376,556.465 125.522))
29	2012-06-05 11:45:00-04	POLYGON((-497.533 224.887,-484.078 309.913,-412.371 310.052,-423.836 225.011,-497.533 224.887))
3	2012-06-01 08:45:00-04	POLYGON((511.504 -282.428,525.797 -187,606.352 -187.583,589.871 -282.967,511.504 -282.428))
3	2012-06-01 09:00:00-04	POLYGON((514.783 -281.712,528.963 -187.528,608.393 -188.105,592.083 -282.246,514.783 -281.712))
3	2012-06-01 09:15:00-04	POLYGON((517.055 -281.216,531.157 -187.894,609.807 -188.467,593.615 -281.746,517.055 -281.216))
3	2012-06-01 09:30:00-04	POLYGON((519.327 -280.72,533.35 -188.26,611.221 -188.829,595.147 -281.247,519.327 -280.72))
3	2012-06-01 09:45:00-04	POLYGON((521.599 -280.224,535.544 -188.626,612.635 -189.19,596.68 -280.747,521.599 -280.224))
3	2012-06-01 10:00:00-04	POLYGON((523.871 -279.728,537.738 -188.992,614.049 -189.552,598.212 -280.248,523.871 -279.728))
3	2012-06-01 10:15:00-04	POLYGON((526.143 -279.232,539.931 -189.358,615.463 -189.914,599.745 -279.748,526.143 -279.232))
3	2012-06-01 10:30:00-04	POLYGON((528.415 -278.736,542.125 -189.724,616.877 -190.276,601.277 -279.249,528.415 -278.736))
3	2012-06-01 10:45:00-04	POLYGON((530.743 -278.57,544.429 -190.143,618.622 -190.693,603.071 -279.081,530.743 -278.57))
3	2012-06-01 11:00:00-04	POLYGON((533.819 -278.889,547.564 -190.767,621.394 -191.317,605.795 -279.401,533.819 -278.889))
3	2012-06-01 11:15:00-04	POLYGON((535.95 -279.111,549.736 -191.199,623.314 -191.749,607.682 -279.622,535.95 -279.111))
3	2012-06-01 11:30:00-04	POLYGON((538.081 -279.332,551.908 -191.631,625.235 -192.181,609.569 -279.843,538.081 -279.332))
3	2012-06-01 11:45:00-04	POLYGON((540.109 -287.162,553.992 -199.769,627.109 -199.678,611.398 -287.047,540.109 -287.162))
30	2012-06-05 15:45:00-04	POLYGON((-239.06 -340.7,-249.298 -218.964,-117.32 -218.958,-112.501 -340.71,-239.06 -340.7))
30	2012-06-05 16:00:00-04	POLYGON((-238.025 -341.541,-248.299 -219.108,-115.589 -219.103,-110.805 -341.551,-238.025 -341.541))
30	2012-06-05 16:15:00-04	POLYGON((-236.969 -341.689,-247.259 -218.668,-113.946 -218.647,-109.205 -341.684,-236.969 -341.689))
31	2012-06-05 16:15:00-04	POLYGON((582.106 -245.475,594.694 -154.626,672.9 -154.705,658.661 -245.521,582.106 -245.475))
32	2012-06-06 08:15:00-04	POLYGON((-187.793 -359.968,-194.456 -272.821,-100.729 -272.807,-97.2787 -359.961,-187.793 -359.968))
33	2012-06-06 08:15:00-04	POLYGON((-247.037 152.047,-241.06 255.713,-143.298 255.785,-146.85 152.109,-247.037 152.047))
34	2012-06-06 10:15:00-04	POLYGON((-77.7334 -351.012,-81.3852 -221.739,51.4466 -221.737,49.131 -351.012,-77.7334 -351.012))
35	2012-06-06 15:15:00-04	POLYGON((114.752 151.173,112.865 227.336,190.947 227.296,194.138 151.136,114.752 151.173))
36	2012-06-06 16:45:00-04	POLYGON((335.66 -419.309,359.62 -264.039,490.921 -264.091,458.224 -419.31,335.66 -419.309))
37	2012-06-06 17:45:00-04	POLYGON((-125.758 67.0418,-124.375 154.525,-38.277 154.523,-38.7 67.0363,-125.758 67.0418))
37	2012-06-06 18:00:00-04	POLYGON((-128.201 60.1035,-126.61 159.601,-28.7063 159.598,-29.0545 60.0972,-128.201 60.1035))
37	2012-06-06 18:15:00-04	POLYGON((-129.892 57.2812,-128.138 166.376,-20.7646 166.4,-21.0475 57.2997,-129.892 57.2812))
38	2012-06-07 00:30:00-04	POLYGON((-37.6045 55.6881,-36.8881 194.834,101.539 194.822,103.569 55.6798,-37.6045 55.6881))
39	2012-06-07 01:00:00-04	POLYGON((267.333 200.858,259.839 295.715,362.201 295.724,372.646 200.885,267.333 200.858))
39	2012-06-07 01:15:00-04	POLYGON((269.869 199.444,262.164 296.226,366.663 296.236,377.441 199.474,269.869 199.444))
39	2012-06-07 01:30:00-04	POLYGON((271.296 198.648,263.472 296.513,369.175 296.525,380.139 198.679,271.296 198.648))
39	2012-06-07 01:45:00-04	POLYGON((272.723 197.852,264.78 296.8,371.686 296.813,382.838 197.885,272.723 197.852))
39	2012-06-07 02:00:00-04	POLYGON((274.151 197.056,266.089 297.088,374.198 297.101,385.537 197.091,274.151 197.056))
39	2012-06-07 02:15:00-04	POLYGON((275.578 196.26,267.397 297.375,376.71 297.39,388.235 196.296,275.578 196.26))
39	2012-06-07 02:30:00-04	POLYGON((277.005 195.464,268.705 297.662,379.221 297.678,390.934 195.502,277.005 195.464))
39	2012-06-07 02:45:00-04	POLYGON((278.432 194.668,270.014 297.95,381.733 297.966,393.633 194.708,278.432 194.668))
39	2012-06-07 03:00:00-04	POLYGON((279.98 194.917,271.468 298.568,383.651 298.585,395.679 194.958,279.98 194.917))
39	2012-06-07 03:15:00-04	POLYGON((281.7 195.514,273.093 299.342,385.55 299.361,397.699 195.556,281.7 195.514))
39	2012-06-07 03:30:00-04	POLYGON((285.212 195.997,276.697 297.809,387.047 297.829,398.972 196.039,285.212 195.997))
39	2012-06-07 03:45:00-04	POLYGON((291.775 196.809,283.467 294.562,389.552 294.583,401.001 196.851,291.775 196.809))
39	2012-06-07 04:00:00-04	POLYGON((295.469 197.266,287.277 292.735,390.963 292.757,402.144 197.308,295.469 197.266))
39	2012-06-07 04:15:00-04	POLYGON((299.163 197.723,291.088 290.907,392.373 290.93,403.286 197.765,299.163 197.723))
39	2012-06-07 04:30:00-04	POLYGON((302.857 198.18,294.898 289.079,393.783 289.103,404.428 198.222,302.857 198.18))
39	2012-06-07 04:45:00-04	POLYGON((306.551 198.637,298.709 287.252,395.193 287.276,405.57 198.679,306.551 198.637))
39	2012-06-07 05:00:00-04	POLYGON((294.67 188.869,287.455 276.839,382.667 276.864,392.253 188.912,294.67 188.869))
39	2012-06-07 05:15:00-04	POLYGON((271.248 170.676,265.142 258.396,358.996 258.422,367.233 170.719,271.248 170.676))
39	2012-06-07 05:30:00-04	POLYGON((258.065 160.436,252.584 248.015,345.673 248.043,353.15 160.479,258.065 160.436))
39	2012-06-07 05:45:00-04	POLYGON((244.882 150.197,240.025 237.635,332.35 237.663,339.068 150.239,244.882 150.197))
39	2012-06-07 06:00:00-04	POLYGON((243.779 150.769,239.011 238.122,331.106 238.055,337.702 150.714,243.779 150.769))
4	2012-06-02 15:15:00-04	POLYGON((-4.87013 -266.952,-4.96844 -184.226,78.0541 -184.218,76.3586 -266.941,-4.87013 -266.952))
40	2012-06-07 02:30:00-04	POLYGON((-140.23 118.175,-137.991 205.814,-52.5745 205.835,-53.4198 118.193,-140.23 118.175))
41	2012-06-07 07:30:00-04	POLYGON((467.862 -399.865,485.515 -321.572,546.216 -321.55,526.363 -399.828,467.862 -399.865))
42	2012-06-07 09:30:00-04	POLYGON((339.267 197.941,329.862 293.639,434.93 293.517,447.324 197.838,339.267 197.941))
43	2012-06-07 10:30:00-04	POLYGON((21.7375 170.764,21.2739 254.955,105.936 254.962,108.229 170.775,21.7375 170.764))
43	2012-06-07 10:45:00-04	POLYGON((26.5273 170.523,25.9299 259.349,115.363 259.358,118.018 170.535,26.5273 170.523))
43	2012-06-07 11:00:00-04	POLYGON((29.0203 173.285,28.3464 262.632,118.367 262.619,121.126 173.274,29.0203 173.285))
44	2012-06-07 17:30:00-04	POLYGON((-99.3179 233.546,-96.2065 326.994,-5.85445 327.003,-6.02251 233.552,-99.3179 233.546))
45	2012-06-07 23:30:00-04	POLYGON((367.643 117.817,350.044 310.156,560.021 310.016,588.133 117.793,367.643 117.817))
46	2012-06-08 01:00:00-04	POLYGON((286.363 -332.239,293.84 -261.167,357.558 -261.044,348.459 -332.111,286.363 -332.239))
46	2012-06-08 01:15:00-04	POLYGON((290.307 -330.615,297.725 -260.727,360.319 -260.604,351.34 -330.488,290.307 -330.615))
46	2012-06-08 01:30:00-04	POLYGON((292.527 -329.701,299.912 -260.479,361.873 -260.356,352.962 -329.574,292.527 -329.701))
46	2012-06-08 01:45:00-04	POLYGON((294.747 -328.788,302.098 -260.231,363.426 -260.109,354.583 -328.66,294.747 -328.788))
46	2012-06-08 02:00:00-04	POLYGON((296.928 -325.686,304.33 -257.202,365.47 -257.162,356.585 -325.64,296.928 -325.686))
47	2012-06-08 09:00:00-04	POLYGON((454.435 132.419,436.042 293.52,615.941 293.92,641.915 132.944,454.435 132.419))
47	2012-06-08 09:15:00-04	POLYGON((452.604 128.561,433.532 296.6,621.069 297.021,648.371 129.118,452.604 128.561))
47	2012-06-08 09:30:00-04	POLYGON((454.673 129.536,435.674 296.038,621.603 296.46,648.697 130.091,454.673 129.536))
47	2012-06-08 09:45:00-04	POLYGON((458.912 132.227,440.203 294.289,621.399 294.708,647.804 132.772,458.912 132.227))
47	2012-06-08 10:00:00-04	POLYGON((461.298 133.741,442.753 293.305,621.284 293.722,647.301 134.282,461.298 133.741))
47	2012-06-08 10:15:00-04	POLYGON((463.684 135.256,445.302 292.321,621.17 292.735,646.798 135.791,463.684 135.256))
47	2012-06-08 10:30:00-04	POLYGON((465.314 135.292,446.805 292.669,623.118 293.09,648.917 135.835,465.314 135.292))
47	2012-06-08 10:45:00-04	POLYGON((467.661 134.646,448.803 293.884,627.341 294.32,653.691 135.209,467.661 134.646))
47	2012-06-08 11:00:00-04	POLYGON((468.983 134.283,449.927 294.568,629.718 295.012,656.378 134.857,468.983 134.283))
47	2012-06-08 11:15:00-04	POLYGON((470.304 133.919,451.051 295.252,632.095 295.704,659.065 134.504,470.304 133.919))
47	2012-06-08 11:30:00-04	POLYGON((471.625 133.556,452.176 295.935,634.472 296.396,661.752 134.152,471.625 133.556))
47	2012-06-08 11:45:00-04	POLYGON((472.946 133.192,453.3 296.619,636.849 297.088,664.439 133.799,472.946 133.192))
47	2012-06-08 12:00:00-04	POLYGON((474.268 132.828,454.425 297.303,639.226 297.78,667.126 133.447,474.268 132.828))
47	2012-06-08 12:15:00-04	POLYGON((475.589 132.465,455.549 297.987,641.603 298.473,669.814 133.095,475.589 132.465))
47	2012-06-08 12:30:00-04	POLYGON((476.91 132.101,456.673 298.671,643.98 299.165,672.501 132.742,476.91 132.101))
47	2012-06-08 12:45:00-04	POLYGON((478.231 131.738,457.798 299.354,646.357 299.857,675.188 132.39,478.231 131.738))
47	2012-06-08 13:00:00-04	POLYGON((479.552 131.374,458.922 300.038,648.734 300.549,677.875 132.037,479.552 131.374))
47	2012-06-08 13:15:00-04	POLYGON((480.874 131.011,460.047 300.722,651.111 301.241,680.562 131.685,480.874 131.011))
47	2012-06-08 13:30:00-04	POLYGON((482.989 130.354,462.181 299.827,652.993 300.352,682.367 131.035,482.989 130.354))
47	2012-06-08 13:45:00-04	POLYGON((485.536 129.549,464.816 298.36,654.884 298.891,684.052 130.235,485.536 129.549))
47	2012-06-08 14:00:00-04	POLYGON((486.307 128.843,465.47 298.542,656.55 299.081,685.916 129.54,486.307 128.843))
47	2012-06-08 14:15:00-04	POLYGON((487.136 127.728,466.065 299.217,659.183 299.769,688.961 128.443,487.136 127.728))
47	2012-06-08 14:30:00-04	POLYGON((487.603 127.101,466.4 299.597,660.665 300.157,690.675 127.825,487.603 127.101))
47	2012-06-08 14:45:00-04	POLYGON((488.07 126.474,466.735 299.977,662.147 300.544,692.389 127.208,488.07 126.474))
47	2012-06-08 15:00:00-04	POLYGON((491.005 127.676,469.727 299.415,663.319 299.983,693.345 128.409,491.005 127.676))
47	2012-06-08 15:15:00-04	POLYGON((494.966 129.554,473.81 298.509,664.496 299.078,694.147 130.283,494.966 129.554))
47	2012-06-08 15:30:00-04	POLYGON((499.276 131.724,478.454 296.568,664.687 297.13,693.617 132.441,499.276 131.724))
47	2012-06-08 15:45:00-04	POLYGON((506.302 135.291,486.07 293.199,664.767 293.749,692.453 135.985,506.302 135.291))
47	2012-06-08 16:00:00-04	POLYGON((510.256 137.298,490.356 291.302,664.811 291.846,691.798 137.98,510.256 137.298))
47	2012-06-08 16:15:00-04	POLYGON((514.21 139.305,494.643 289.406,664.856 289.944,691.142 139.974,514.21 139.305))
47	2012-06-08 16:30:00-04	POLYGON((516.788 140.871,497.465 288.187,664.645 288.721,690.444 141.531,516.788 140.871))
47	2012-06-08 16:45:00-04	POLYGON((519.16 142.434,500.075 287.075,664.335 287.605,689.671 143.086,519.16 142.434))
47	2012-06-08 17:00:00-04	POLYGON((521.052 145.259,501.914 289.471,665.53 289.526,690.875 145.419,521.052 145.259))
48	2012-06-08 12:30:00-04	POLYGON((116.755 237.069,113.244 324.881,204.607 324.878,210.933 237.073,116.755 237.069))
49	2012-06-08 21:00:00-04	POLYGON((539.244 135.047,517.423 295.647,700.231 295.709,729.72 135.251,539.244 135.047))
5	2012-06-03 05:15:00-04	POLYGON((-700.274 -398.524,-737.346 -281.906,-582.819 -281.06,-553.496 -397.811,-700.274 -398.524))
5	2012-06-03 05:30:00-04	POLYGON((-709.191 -396.13,-746.829 -277.678,-589.864 -276.794,-560.115 -395.388,-709.191 -396.13))
5	2012-06-03 05:45:00-04	POLYGON((-715.37 -394.472,-753.399 -274.749,-594.746 -273.839,-564.701 -393.709,-715.37 -394.472))
5	2012-06-03 06:00:00-04	POLYGON((-721.548 -392.814,-759.969 -271.82,-599.627 -270.884,-569.287 -392.03,-721.548 -392.814))
5	2012-06-03 06:15:00-04	POLYGON((-727.726 -391.155,-766.539 -268.891,-604.509 -267.928,-573.873 -390.351,-727.726 -391.155))
5	2012-06-03 06:30:00-04	POLYGON((-733.904 -389.497,-773.109 -265.962,-609.39 -264.973,-578.459 -388.672,-733.904 -389.497))
5	2012-06-03 06:45:00-04	POLYGON((-740.083 -387.839,-779.679 -263.033,-614.271 -262.018,-583.045 -386.993,-740.083 -387.839))
5	2012-06-03 07:00:00-04	POLYGON((-746.261 -386.18,-786.249 -260.103,-619.153 -259.063,-587.631 -385.314,-746.261 -386.18))
5	2012-06-03 07:15:00-04	POLYGON((-748.538 -385.027,-788.475 -258.94,-621.416 -257.896,-589.91 -384.158,-748.538 -385.027))
5	2012-06-03 07:30:00-04	POLYGON((-745.035 -384.333,-784.162 -260.348,-620.049 -259.339,-589.086 -383.492,-745.035 -384.333))
5	2012-06-03 07:45:00-04	POLYGON((-742.607 -383.852,-781.173 -261.324,-619.101 -260.339,-588.515 -383.03,-742.607 -383.852))
5	2012-06-03 08:00:00-04	POLYGON((-740.18 -383.371,-778.185 -262.299,-618.154 -261.339,-587.943 -382.568,-740.18 -383.371))
5	2012-06-03 08:15:00-04	POLYGON((-737.753 -382.89,-775.196 -263.275,-617.207 -262.339,-587.372 -382.106,-737.753 -382.89))
5	2012-06-03 08:30:00-04	POLYGON((-735.325 -382.409,-772.208 -264.251,-616.259 -263.34,-586.801 -381.645,-735.325 -382.409))
5	2012-06-03 08:45:00-04	POLYGON((-733.485 -385.893,-770.027 -268.726,-614.994 -269.345,-585.789 -386.584,-733.485 -385.893))
50	2012-06-09 03:00:00-04	POLYGON((250.179 210.267,242.967 303.697,343.733 303.716,353.925 210.301,250.179 210.267))
51	2012-06-09 04:30:00-04	POLYGON((437.304 181.339,421.271 307.565,563.824 307.613,585.262 181.45,437.304 181.339))
52	2012-06-09 22:30:00-04	POLYGON((310.925 238.48,301.464 325.541,398.246 325.799,410.741 238.766,310.925 238.48))
52	2012-06-09 22:45:00-04	POLYGON((321.481 234.971,311.535 324.226,411.021 324.509,424.136 235.285,321.481 234.971))
52	2012-06-09 23:00:00-04	POLYGON((328.794 232.539,318.513 323.316,419.872 323.615,433.417 232.872,328.794 232.539))
52	2012-06-09 23:15:00-04	POLYGON((336.107 230.108,325.49 322.405,428.723 322.721,442.698 230.46,336.107 230.108))
52	2012-06-09 23:30:00-04	POLYGON((343.42 227.677,332.468 321.494,437.573 321.827,451.979 228.048,343.42 227.677))
52	2012-06-09 23:45:00-04	POLYGON((350.734 225.245,339.446 320.583,446.424 320.934,461.26 225.636,350.734 225.245))
52	2012-06-10 00:00:00-04	POLYGON((358.047 222.814,346.423 319.672,455.275 320.04,470.541 223.224,358.047 222.814))
52	2012-06-10 00:15:00-04	POLYGON((365.36 220.383,353.401 318.762,464.126 319.146,479.822 220.812,365.36 220.383))
52	2012-06-10 00:30:00-04	POLYGON((372.674 217.951,360.378 317.851,472.977 318.252,489.103 218.4,372.674 217.951))
52	2012-06-10 00:45:00-04	POLYGON((379.987 215.52,367.356 316.94,481.828 317.358,498.384 215.988,379.987 215.52))
52	2012-06-10 01:00:00-04	POLYGON((387.3 213.089,374.334 316.029,490.679 316.465,507.665 213.576,387.3 213.089))
52	2012-06-10 01:15:00-04	POLYGON((394.614 210.657,381.311 315.118,499.53 315.571,516.945 211.164,394.614 210.657))
52	2012-06-10 01:30:00-04	POLYGON((401.927 208.226,388.289 314.207,508.381 314.677,526.226 208.752,401.927 208.226))
52	2012-06-10 01:45:00-04	POLYGON((409.24 205.795,395.267 313.297,517.231 313.783,535.507 206.34,409.24 205.795))
52	2012-06-10 02:00:00-04	POLYGON((416.554 203.363,402.244 312.386,526.082 312.889,544.788 203.927,416.554 203.363))
52	2012-06-10 02:15:00-04	POLYGON((423.867 200.932,409.222 311.475,534.933 311.995,554.069 201.515,423.867 200.932))
52	2012-06-10 02:30:00-04	POLYGON((428.503 200.601,413.854 310.402,538.829 310.925,557.91 201.186,428.503 200.601))
52	2012-06-10 02:45:00-04	POLYGON((430.239 203.745,416.155 308.661,535.658 309.162,553.835 204.303,430.239 203.745))
52	2012-06-10 03:00:00-04	POLYGON((431.442 205.923,417.749 307.455,533.462 307.941,551.012 206.463,431.442 205.923))
52	2012-06-10 03:15:00-04	POLYGON((432.644 208.101,419.343 306.249,531.265 306.72,548.188 208.623,432.644 208.101))
52	2012-06-10 03:30:00-04	POLYGON((433.847 210.28,420.938 305.042,529.068 305.499,545.365 210.783,433.847 210.28))
52	2012-06-10 03:45:00-04	POLYGON((435.05 212.458,422.532 303.836,526.872 304.277,542.542 212.943,435.05 212.458))
52	2012-06-10 04:00:00-04	POLYGON((436.253 214.636,424.126 302.63,524.675 303.056,539.719 215.103,436.253 214.636))
52	2012-06-10 04:15:00-04	POLYGON((437.455 216.814,425.72 301.424,522.478 301.835,536.895 217.262,437.455 216.814))
52	2012-06-10 04:30:00-04	POLYGON((439.076 223.227,427.523 305.821,522.107 305.845,536.208 223.277,439.076 223.227))
53	2012-06-10 13:30:00-04	POLYGON((502.364 145.811,470.467 354.874,713.139 356.578,761.923 147.893,502.364 145.811))
53	2012-06-10 13:45:00-04	POLYGON((509.329 153.814,481.066 339.276,696.301 340.779,738.768 155.635,509.329 153.814))
53	2012-06-10 14:00:00-04	POLYGON((514.155 159.359,488.409 328.469,684.635 329.833,722.725 160.999,514.155 159.359))
53	2012-06-10 14:15:00-04	POLYGON((518.981 164.904,495.752 317.662,672.969 318.887,706.683 166.363,518.981 164.904))
53	2012-06-10 14:30:00-04	POLYGON((523.807 170.449,503.095 306.854,661.304 307.941,690.64 171.727,523.807 170.449))
53	2012-06-10 14:45:00-04	POLYGON((528.633 175.994,510.438 296.047,649.638 296.994,674.598 177.09,528.633 175.994))
53	2012-06-10 15:00:00-04	POLYGON((533.459 181.539,517.781 285.24,637.972 286.048,658.555 182.454,533.459 181.539))
53	2012-06-10 15:15:00-04	POLYGON((538.285 187.084,525.124 274.433,626.306 275.102,642.512 187.818,538.285 187.084))
53	2012-06-10 15:30:00-04	POLYGON((541.86 196.295,530.073 274.413,620.591 274.399,634.384 196.309,541.86 196.295))
54	2012-06-10 13:30:00-04	POLYGON((-681.329 -437.161,-713.777 -348.427,-594.041 -349.869,-567.02 -438.592,-681.329 -437.161))
54	2012-06-10 13:45:00-04	POLYGON((-678.233 -436.297,-709.958 -349.074,-592.422 -350.481,-565.937 -437.693,-678.233 -436.297))
54	2012-06-10 14:00:00-04	POLYGON((-676.088 -435.698,-707.312 -349.522,-591.3 -350.905,-565.187 -437.071,-676.088 -435.698))
54	2012-06-10 14:15:00-04	POLYGON((-673.944 -435.099,-704.667 -349.97,-590.178 -351.329,-564.437 -436.448,-673.944 -435.099))
54	2012-06-10 14:30:00-04	POLYGON((-671.799 -434.5,-702.021 -350.418,-589.056 -351.753,-563.687 -435.826,-671.799 -434.5))
54	2012-06-10 14:45:00-04	POLYGON((-669.654 -433.902,-699.375 -350.866,-587.934 -352.177,-562.937 -435.203,-669.654 -433.902))
54	2012-06-10 15:00:00-04	POLYGON((-668.09 -433.251,-697.49 -350.768,-586.908 -352.064,-562.157 -434.538,-668.09 -433.251))
54	2012-06-10 15:15:00-04	POLYGON((-667.02 -432.332,-696.296 -349.763,-585.748 -351.054,-561.107 -433.615,-667.02 -432.332))
54	2012-06-10 15:30:00-04	POLYGON((-666.278 -431.696,-695.469 -349.066,-584.944 -350.355,-560.38 -432.976,-666.278 -431.696))
54	2012-06-10 15:45:00-04	POLYGON((-665.537 -431.059,-694.642 -348.369,-584.14 -349.655,-559.652 -432.336,-665.537 -431.059))
54	2012-06-10 16:00:00-04	POLYGON((-664.588 -426.486,-693.608 -343.566,-582.979 -343.895,-558.577 -426.846,-664.588 -426.486))
6	2012-06-03 13:45:00-04	POLYGON((-787.578 116.85,-753.246 299.98,-603.202 301.227,-630.715 117.991,-787.578 116.85))
6	2012-06-03 14:00:00-04	POLYGON((-785.235 117.315,-752.343 294.439,-606.909 295.642,-633.365 118.417,-785.235 117.315))
6	2012-06-03 14:15:00-04	POLYGON((-783.123 117.733,-751.529 289.447,-610.249 290.61,-635.752 118.8,-783.123 117.733))
6	2012-06-03 14:30:00-04	POLYGON((-781.012 118.152,-750.715 284.455,-613.588 285.578,-638.139 119.184,-781.012 118.152))
6	2012-06-03 14:45:00-04	POLYGON((-778.901 118.571,-749.901 279.462,-616.928 280.546,-640.526 119.568,-778.901 118.571))
6	2012-06-03 15:00:00-04	POLYGON((-776.79 118.99,-749.087 274.47,-620.267 275.514,-642.913 119.951,-776.79 118.99))
6	2012-06-03 15:15:00-04	POLYGON((-774.679 119.408,-748.273 269.478,-623.607 270.483,-645.3 120.335,-774.679 119.408))
6	2012-06-03 15:30:00-04	POLYGON((-772.568 119.827,-747.459 264.486,-626.946 265.451,-647.687 120.718,-772.568 119.827))
6	2012-06-03 15:45:00-04	POLYGON((-770.457 120.246,-746.646 259.494,-630.286 260.419,-650.074 121.102,-770.457 120.246))
6	2012-06-03 16:00:00-04	POLYGON((-768.345 120.664,-745.832 254.502,-633.625 255.387,-652.461 121.485,-768.345 120.664))
6	2012-06-03 16:15:00-04	POLYGON((-766.234 121.083,-745.018 249.51,-636.965 250.355,-654.848 121.869,-766.234 121.083))
6	2012-06-03 16:30:00-04	POLYGON((-764.123 121.502,-744.204 244.518,-640.305 245.324,-657.235 122.253,-764.123 121.502))
6	2012-06-03 16:45:00-04	POLYGON((-762.012 121.921,-743.39 239.525,-643.644 240.292,-659.622 122.636,-762.012 121.921))
6	2012-06-03 17:00:00-04	POLYGON((-759.901 122.339,-742.576 234.533,-646.984 235.26,-662.009 123.02,-759.901 122.339))
6	2012-06-03 17:15:00-04	POLYGON((-758.439 123.364,-741.987 231.457,-649.653 232.153,-664.057 124.018,-758.439 123.364))
6	2012-06-03 17:30:00-04	POLYGON((-762.584 129.855,-743.333 245.06,-646.638 245.804,-663.293 130.553,-762.584 129.855))
6	2012-06-03 17:45:00-04	POLYGON((-766.319 135.703,-744.545 257.315,-643.922 258.103,-662.606 136.441,-766.319 135.703))
6	2012-06-03 18:00:00-04	POLYGON((-770.054 141.551,-745.757 269.569,-641.206 270.402,-661.918 142.328,-770.054 141.551))
6	2012-06-03 18:15:00-04	POLYGON((-773.788 147.398,-746.97 281.824,-638.49 282.7,-661.23 148.216,-773.788 147.398))
6	2012-06-03 18:30:00-04	POLYGON((-777.523 153.246,-748.182 294.079,-635.774 294.999,-660.542 154.103,-777.523 153.246))
6	2012-06-03 18:45:00-04	POLYGON((-781.258 159.094,-749.395 306.334,-633.057 307.297,-659.854 159.991,-781.258 159.094))
6	2012-06-03 19:00:00-04	POLYGON((-784.992 164.942,-750.607 318.589,-630.341 319.596,-659.166 165.878,-784.992 164.942))
6	2012-06-03 19:15:00-04	POLYGON((-787.581 169.485,-751.229 328.179,-627.85 329.22,-658.255 170.452,-787.581 169.485))
6	2012-06-03 19:30:00-04	POLYGON((-780.27 162.905,-746.677 315.08,-627.114 316.064,-655.281 163.819,-780.27 162.905))
6	2012-06-03 19:45:00-04	POLYGON((-773.683 156.977,-742.576 303.279,-626.452 304.211,-652.602 157.844,-773.683 156.977))
6	2012-06-03 20:00:00-04	POLYGON((-767.096 151.049,-738.475 291.478,-625.789 292.359,-649.923 151.869,-767.096 151.049))
6	2012-06-03 20:15:00-04	POLYGON((-760.509 145.121,-734.374 279.677,-625.126 280.507,-647.244 145.893,-760.509 145.121))
6	2012-06-03 20:30:00-04	POLYGON((-753.922 139.193,-730.273 267.876,-624.463 268.654,-644.565 139.918,-753.922 139.193))
6	2012-06-03 20:45:00-04	POLYGON((-747.335 133.265,-726.173 256.075,-623.801 256.802,-641.886 133.942,-747.335 133.265))
6	2012-06-03 21:00:00-04	POLYGON((-740.748 127.337,-722.072 244.274,-623.138 244.949,-639.206 127.967,-740.748 127.337))
6	2012-06-03 21:15:00-04	POLYGON((-734.702 122.055,-718.248 233.734,-622.395 234.363,-636.659 122.642,-734.702 122.055))
6	2012-06-03 21:30:00-04	POLYGON((-732.946 121.992,-716.593 233.384,-620.931 234.007,-635.108 122.572,-732.946 121.992))
6	2012-06-03 21:45:00-04	POLYGON((-731.356 121.942,-715.083 233.132,-619.549 233.749,-633.655 122.517,-731.356 121.942))
6	2012-06-03 22:00:00-04	POLYGON((-729.619 121.947,-713.336 233.4,-617.557 234.012,-631.663 122.518,-729.619 121.947))
6	2012-06-03 22:15:00-04	POLYGON((-728.655 121.341,-711.845 235.581,-613.8 236.203,-628.253 121.918,-728.655 121.341))
6	2012-06-03 22:30:00-04	POLYGON((-732.868 115.351,-710.949 254.884,-592.6 255.627,-610.461 116.027,-732.868 115.351))
6	2012-06-03 22:45:00-04	POLYGON((-736.664 109.955,-710.143 272.274,-573.5 273.125,-594.432 110.719,-736.664 109.955))
6	2012-06-03 23:00:00-04	POLYGON((-740.46 104.558,-709.336 289.665,-554.401 290.624,-578.403 105.412,-740.46 104.558))
6	2012-06-03 23:15:00-04	POLYGON((-743.385 100.1,-708.3 304.756,-537.683 305.808,-564.326 101.029,-743.385 100.1))
6	2012-06-03 23:30:00-04	POLYGON((-738.84 103.554,-705.114 300.883,-540.506 301.893,-566.22 104.447,-738.84 103.554))
6	2012-06-03 23:45:00-04	POLYGON((-734.745 106.665,-702.244 297.394,-543.049 298.367,-567.927 107.527,-734.745 106.665))
6	2012-06-04 00:00:00-04	POLYGON((-730.65 109.777,-699.374 293.905,-545.592 294.84,-569.634 110.607,-730.65 109.777))
6	2012-06-04 00:15:00-04	POLYGON((-726.555 112.888,-696.504 290.415,-548.135 291.313,-571.341 113.686,-726.555 112.888))
6	2012-06-04 00:30:00-04	POLYGON((-722.46 116,-693.634 286.926,-550.678 287.786,-573.047 116.766,-722.46 116))
6	2012-06-04 00:45:00-04	POLYGON((-718.366 119.111,-690.764 283.437,-553.221 284.259,-574.754 119.845,-718.366 119.111))
6	2012-06-04 01:00:00-04	POLYGON((-714.271 122.223,-687.894 279.948,-555.764 280.733,-576.461 122.925,-714.271 122.223))
6	2012-06-04 01:15:00-04	POLYGON((-710.176 125.334,-685.024 276.458,-558.307 277.206,-578.167 126.005,-710.176 125.334))
6	2012-06-04 01:30:00-04	POLYGON((-706.081 128.446,-682.154 272.969,-560.851 273.679,-579.874 129.084,-706.081 128.446))
6	2012-06-04 01:45:00-04	POLYGON((-701.986 131.557,-679.284 269.48,-563.394 270.152,-581.581 132.164,-701.986 131.557))
6	2012-06-04 02:00:00-04	POLYGON((-697.891 134.669,-676.414 265.991,-565.937 266.626,-583.288 135.243,-697.891 134.669))
6	2012-06-04 02:15:00-04	POLYGON((-693.797 137.78,-673.544 262.502,-568.48 263.099,-584.994 138.323,-693.797 137.78))
6	2012-06-04 02:30:00-04	POLYGON((-689.702 140.892,-670.674 259.012,-571.023 259.572,-586.701 141.403,-689.702 140.892))
6	2012-06-04 02:45:00-04	POLYGON((-685.607 144.003,-667.804 255.523,-573.566 256.045,-588.408 144.482,-685.607 144.003))
6	2012-06-04 03:00:00-04	POLYGON((-681.512 147.115,-664.934 252.034,-576.109 252.519,-590.115 147.562,-681.512 147.115))
6	2012-06-04 03:15:00-04	POLYGON((-677.417 150.226,-662.064 248.545,-578.652 248.992,-591.821 150.642,-677.417 150.226))
6	2012-06-04 03:30:00-04	POLYGON((-673.322 153.338,-659.194 245.055,-581.195 245.465,-593.528 153.721,-673.322 153.338))
6	2012-06-04 03:45:00-04	POLYGON((-669.521 156.097,-656.488 241.936,-583.307 242.311,-594.891 156.452,-669.521 156.097))
6	2012-06-04 04:00:00-04	POLYGON((-667.955 156.004,-654.968 241.792,-581.795 242.164,-593.336 156.356,-667.955 156.004))
6	2012-06-04 04:15:00-04	POLYGON((-666.545 155.92,-653.599 241.663,-580.434 242.032,-591.934 156.269,-666.545 155.92))
6	2012-06-04 04:30:00-04	POLYGON((-665.134 155.836,-652.23 241.534,-579.072 241.899,-590.533 156.182,-665.134 155.836))
6	2012-06-04 04:45:00-04	POLYGON((-663.724 155.752,-650.861 241.404,-577.71 241.767,-589.132 156.095,-663.724 155.752))
6	2012-06-04 05:00:00-04	POLYGON((-662.313 155.668,-649.492 241.275,-576.348 241.635,-587.73 156.008,-662.313 155.668))
6	2012-06-04 05:15:00-04	POLYGON((-660.903 155.584,-648.123 241.145,-574.986 241.502,-586.329 155.921,-660.903 155.584))
6	2012-06-04 05:30:00-04	POLYGON((-659.492 155.5,-646.754 241.016,-573.624 241.37,-584.928 155.835,-659.492 155.5))
6	2012-06-04 05:45:00-04	POLYGON((-658.082 155.416,-645.385 240.887,-572.262 241.238,-583.526 155.748,-658.082 155.416))
6	2012-06-04 06:00:00-04	POLYGON((-656.671 155.332,-644.016 240.757,-570.901 241.105,-582.125 155.661,-656.671 155.332))
6	2012-06-04 06:15:00-04	POLYGON((-655.243 155.249,-642.628 240.64,-569.51 240.985,-580.696 155.575,-655.243 155.249))
6	2012-06-04 06:30:00-04	POLYGON((-653.524 155.162,-640.936 240.615,-567.732 240.957,-578.888 155.485,-653.524 155.162))
6	2012-06-04 06:45:00-04	POLYGON((-651.975 155.084,-639.411 240.593,-566.13 240.933,-577.259 155.405,-651.975 155.084))
6	2012-06-04 07:00:00-04	POLYGON((-650.426 155.006,-637.887 240.57,-564.527 240.908,-575.63 155.324,-650.426 155.006))
6	2012-06-04 07:15:00-04	POLYGON((-648.877 154.928,-636.362 240.548,-562.925 240.883,-574.001 155.243,-648.877 154.928))
6	2012-06-04 07:30:00-04	POLYGON((-647.328 154.85,-634.838 240.526,-561.323 240.858,-572.372 155.163,-647.328 154.85))
6	2012-06-04 07:45:00-04	POLYGON((-645.779 154.772,-633.313 240.503,-559.721 240.833,-570.743 155.082,-645.779 154.772))
6	2012-06-04 08:00:00-04	POLYGON((-644.23 154.694,-631.789 240.481,-558.119 240.808,-569.114 155.001,-644.23 154.694))
6	2012-06-04 08:15:00-04	POLYGON((-642.584 154.634,-630.151 240.571,-556.325 240.896,-567.305 154.939,-642.584 154.634))
6	2012-06-04 08:30:00-04	POLYGON((-640.032 154.723,-627.47 241.621,-552.811 241.946,-563.881 155.027,-640.032 154.723))
6	2012-06-04 08:45:00-04	POLYGON((-637.805 154.816,-625.148 242.444,-549.854 242.768,-560.988 155.119,-637.805 154.816))
6	2012-06-04 09:00:00-04	POLYGON((-636.029 155.021,-623.464 242.25,-548.482 242.569,-559.538 155.32,-636.029 155.021))
6	2012-06-04 09:15:00-04	POLYGON((-634.428 155.206,-621.947 242.075,-547.245 242.391,-558.231 155.502,-634.428 155.206))
6	2012-06-04 09:30:00-04	POLYGON((-632.828 155.391,-620.43 241.9,-546.009 242.212,-556.925 155.683,-632.828 155.391))
6	2012-06-04 09:45:00-04	POLYGON((-631.214 155.553,-618.891 241.753,-544.707 242.062,-555.558 155.842,-631.214 155.553))
6	2012-06-04 10:00:00-04	POLYGON((-629.311 155.525,-617.006 241.845,-542.687 242.151,-553.515 155.811,-629.311 155.525))
6	2012-06-04 10:15:00-04	POLYGON((-627.597 155.5,-615.308 241.927,-540.867 242.231,-551.674 155.784,-627.597 155.5))
6	2012-06-04 10:30:00-04	POLYGON((-625.883 155.474,-613.609 242.01,-539.047 242.311,-549.833 155.756,-625.883 155.474))
6	2012-06-04 10:45:00-04	POLYGON((-624.169 155.449,-611.911 242.092,-537.227 242.392,-547.993 155.729,-624.169 155.449))
6	2012-06-04 11:00:00-04	POLYGON((-622.455 155.424,-610.213 242.175,-535.408 242.472,-546.152 155.701,-622.455 155.424))
6	2012-06-04 11:15:00-04	POLYGON((-620.74 155.398,-608.515 242.257,-533.588 242.552,-544.311 155.673,-620.74 155.398))
6	2012-06-04 11:30:00-04	POLYGON((-619.026 155.373,-606.816 242.34,-531.768 242.632,-542.471 155.646,-619.026 155.373))
6	2012-06-04 11:45:00-04	POLYGON((-617.312 155.348,-605.118 242.422,-529.948 242.713,-540.63 155.618,-617.312 155.348))
6	2012-06-04 12:00:00-04	POLYGON((-615.598 155.323,-603.42 242.505,-528.128 242.793,-538.789 155.591,-615.598 155.323))
6	2012-06-04 12:15:00-04	POLYGON((-613.884 155.297,-601.722 242.587,-526.308 242.873,-536.949 155.563,-613.884 155.297))
6	2012-06-04 12:30:00-04	POLYGON((-612.17 155.272,-600.023 242.67,-524.488 242.953,-535.108 155.536,-612.17 155.272))
6	2012-06-04 12:45:00-04	POLYGON((-610.359 155.318,-598.251 242.672,-522.724 242.953,-533.305 155.579,-610.359 155.318))
6	2012-06-04 13:00:00-04	POLYGON((-607.637 155.974,-595.765 241.995,-521.341 242.269,-531.731 156.228,-607.637 155.974))
6	2012-06-04 13:15:00-04	POLYGON((-605.256 156.479,-593.561 241.543,-519.923 241.811,-530.169 156.728,-605.256 156.479))
6	2012-06-04 13:30:00-04	POLYGON((-603.315 156.27,-591.486 242.433,-516.883 242.701,-527.222 156.519,-603.315 156.27))
6	2012-06-04 13:45:00-04	POLYGON((-601.566 156.082,-589.617 243.234,-514.145 243.503,-524.566 156.331,-601.566 156.082))
6	2012-06-04 14:00:00-04	POLYGON((-599.818 155.893,-587.748 244.036,-511.407 244.305,-521.911 156.143,-599.818 155.893))
6	2012-06-04 14:15:00-04	POLYGON((-598.085 153.25,-585.915 242.328,-508.78 242.399,-519.351 153.297,-598.085 153.25))
7	2012-06-03 14:15:00-04	POLYGON((529.348 -396.215,549.892 -313.219,612.318 -313.042,589.448 -396.025,529.348 -396.215))
8	2012-06-03 14:45:00-04	POLYGON((-257.608 -411.885,-270.341 -308.871,-154.161 -308.964,-146.901 -411.988,-257.608 -411.885))
9	2012-06-03 14:45:00-04	POLYGON((576.141 -298.852,591.519 -212.9,661.922 -212.716,644.719 -298.646,576.141 -298.852))